final Project
…
trumpHashtags <- readr::read_csv("./Data/donaldTrump_TwitterAPI.csv")
search_term <- "#DonaldTrump"
trumpHashtags$date <- substr(trumpHashtags$created_at,1,10)
trumpHashtags <- trumpHashtags[trumpHashtags$date == '2020-11-16',]
print(trumpHashtags)

## # A tibble: 4,600 x 91
##    user_id status_id created_at          screen_name text  source
##      <dbl>     <dbl> <dttm>              <chr>       <chr> <chr> 
##  1 1.28e18   1.33e18 2020-11-16 03:25:52 EssayOpini "Bri Twitt
##  2 3.06e 8   1.33e18 2020-11-16 05:35:16 bitcoincon "US  Click
##  3 3.06e 8   1.33e18 2020-11-16 22:59:11 bitcoincon "The Click
##  4 3.06e 8   1.33e18 2020-11-16 21:55:34 bitcoincon "Why Click
##  5 3.06e 8   1.33e18 2020-11-16 19:13:46 bitcoincon "DHS Click
##  6 3.06e 8   1.33e18 2020-11-16 04:06:51 bitcoincon "US  Click
##  7 3.06e 8   1.33e18 2020-11-16 03:06:42 bitcoincon "Mes Click
##  8 3.06e 8   1.33e18 2020-11-16 11:24:26 bitcoincon "Bid Click
##  9 3.06e 8   1.33e18 2020-11-16 06:39:27 bitcoincon "US  Click
## 10 3.06e 8   1.33e18 2020-11-16 09:53:21 bitcoincon "Tru Click
## #  with 4,590 more rows, and 85 more variables: display_text_width <dbl>,
## #   reply_to_status_id <dbl>, reply_to_user_id <dbl>,
## #   reply_to_screen_name <chr>, is_quote <lgl>, is_retweet <lgl>,
## #   favorite_count <dbl>, retweet_count <dbl>, quote_count <lgl>,
## #   reply_count <lgl>, hashtags <chr>, symbols <chr>, urls_url <chr>,
## #   urls_t.co <chr>, urls_expanded_url <chr>, media_url <chr>,
## #   media_t.co <chr>, media_expanded_url <chr>, media_type <chr>,
## #   ext_media_url <chr>, ext_media_t.co <chr>, ext_media_expanded_url <chr>,
## #   ext_media_type <lgl>, mentions_user_id <chr>, mentions_screen_name <chr>,
…
